Calculates and helps interpret variable importance for mrIML models. — mrVip • mrIML
…
mrIML_rf_vip <- mrVip(
  mrIML_rf,
  mrBootstrap_obj = mrIML_rf_boot
)

mrIML_rf_vip
#> [[1]]
#> # A tibble: 80 × 4
#>    var            sd_value response    bootstrap
#>    <chr>             <dbl> <chr>           <int>
#>  1 Hkillangoi       0.212  Hzosteropis         1
#>  2 Microfilaria     0.0820 Hzosteropis         1
#>  3 Plas             0.0682 Hzosteropis         1
#>  4 scale.prop.zos   0.243  Hzosteropis         1
#>  5 Hkillangoi       0.226  Hzosteropis         2
#>  6 Microfilaria     0.0751 Hzosteropis         2
#>  7 Plas             0.0794 Hzosteropis         2
#>  8 scale.prop.zos   0.354  Hzosteropis         2
#>  9 Hkillangoi       0.232  Hzosteropis         3
#> 10 Microfilaria     0.0644 Hzosteropis         3
#> # ℹ 70 more rows
…
