…
``` r
ModelPerf_rf <- mrIMLperformance(yhats_rf)
ModelPerf_rf$model_performance
#> # A tibble: 29 × 8
#>    response model_name roc_AUC    mcc sensitivity     ppv specificity prevalence
#>    <chr>    <chr>        <dbl>  <dbl>       <dbl>   <dbl>       <dbl>      <dbl>
#>  1 env_131  rand_fore…   0.625 0            1       0.571       0          0.421
#>  2 env_163  rand_fore…   0.583 0            0     NaN           1          0.632
#>  3 env_164  rand_fore…   0.833 0.167        0.5     0.667       0.667      0.421
#>  4 env_167  rand_fore…   0.5   0            1       0.571       0          0.421
#>  5 env_169  rand_fore…   0.333 0            1       0.571       0          0.421
#>  6 env_212  rand_fore…   0.75  0            0     NaN           1          0.684
#>  7 env_23   rand_fore…   0.583 0            0     NaN           1          0.632
#>  8 env_24   rand_fore…   0.833 0.0913       0.75    0.6         0.333      0.421
#>  9 env_41   rand_fore…   0.5   0.333        0.667   0.667       0.667      0.474
#> 10 env_47   rand_fore…   0.667 0            0.667   0.5         0.333      0.474
#> # ℹ 19 more rows
…
