Multi-response (classification) • mrIML
…
ModelPerf_rf <- mrIMLperformance(yhats_rf)
ModelPerf_rf$model_performance
#> # A tibble: 29 × 8
#>    response model_name roc_AUC    mcc sensitivity     ppv specificity prevalence
#>    <chr>    <chr>        <dbl>  <dbl>       <dbl>   <dbl>       <dbl>      <dbl>
#>  1 env_131  rand_fore…   0.625  0.25         0.75   0.75          0.5      0.421
#>  2 env_163  rand_fore…   1      0            0    NaN             1        0.632
#>  3 env_164  rand_fore…   0.444  0            1      0.5           0        0.421
#>  4 env_167  rand_fore…   0     -0.632        0.2    0.5           0        0.421
#>  5 env_169  rand_fore…   0.875  0            1      0.333         0        0.421
#>  6 env_212  rand_fore…   0      0            0    NaN             1        0.684
#>  7 env_23   rand_fore…   0.5    0.316        0.25   1             1        0.632
#>  8 env_24   rand_fore…   0.5    0            1      0.333         0        0.421
#>  9 env_41   rand_fore…   0.625  0            0.5    0.667         0.5      0.474
#> 10 env_47   rand_fore…   1      1            1      1             1        0.474
#> # ℹ 19 more rows
…
